{
  "collapse-filter": true,
  "search": "",
  "showTags": false,
  "showAttachments": false,
  "hideUnresolved": false,
  "showOrphans": true,
  "collapse-color-groups": false,
  "colorGroups": [
    {
      "query": "path:obdobia/literatura-po-roku-1945",
      "color": {
        "a": 1,
        "rgb": 6485126
      }
    },
    {
      "query": "path:obdobia/staroveka-literatura",
      "color": {
        "a": 1,
        "rgb": 14725458
      }
    },
    {
      "query": "",
      "color": {
        "a": 1,
        "rgb": 11657298
      }
    }
  ],
  "collapse-display": true,
  "showArrow": false,
  "textFadeMultiplier": 0,
  "nodeSizeMultiplier": 1,
  "lineSizeMultiplier": 1,
  "collapse-forces": false,
  "centerStrength": 0.518713248970312,
  "repelStrength": 10,
  "linkStrength": 1,
  "linkDistance": 250,
  "scale": 1.0534979423868291,
  "close": true
}